…
Seems correct

#### Clean and transform industry column

``` r
clean %>%
  group_by(industry) %>%
  summarise(n = n()) %>%
  mutate(prop = round(n / sum(n) * 100, 2)) %>%
  arrange(-n)
```

    ## `summarise()` ungrouping output (override with `.groups` argument)

    ## # A tibble: 122 x 3
    ##    industry         n  prop
    ##    <chr>        <int> <dbl>
    ##  1 Dairy           38 17.3 
    ##  2 Milk            10  4.55
    ##  3 Tea              6  2.73
    ##  4 Barley           5  2.27
    ##  5 Canola           5  2.27
    ##  6 Wheat            5  2.27
    ##  7 Oats             4  1.82
    ##  8 Triticale        4  1.82
    ##  9 Cereal foods     3  1.36
    ## 10 Cheese           3  1.36
    ## # ... with 112 more rows
…
clean the column a bit

``` r
clean <- clean %>%
  filter(!is.na(industry)) %>%                        # drop N/A
  mutate(industry_fct = str_to_lower(industry) %>%    # to lowercase
                          str_trim(side="both") ) 
```

``` r
clean %>%
  select(industry, industry_fct)
```

    ## # A tibble: 220 x 2
    ##    industry  industry_fct
    ##    <chr>     <chr>       
    ##  1 Beef      beef        
    ##  2 Beef      beef        
    ##  3 Pork      pork        
    ##  4 Pork      pork        
    ##  5 Textile   textile     
    ##  6 Tobacco   tobacco     
    ##  7 Meat      meat        
    ##  8 Livestock livestock   
    ##  9 Hogs      hogs        
    ## 10 Hogs      hogs        
    ## # ... with 210 more rows
…
clean %>%
  select(industry, industry_fct)
```

    ## # A tibble: 220 x 2
    ##    industry  industry_fct
    ##    <chr>     <chr>       
    ##  1 Beef      meat        
    ##  2 Beef      meat        
    ##  3 Pork      meat        
    ##  4 Pork      meat        
    ##  5 Textile   textile     
    ##  6 Tobacco   tobacco     
    ##  7 Meat      meat        
    ##  8 Livestock meat        
    ##  9 Hogs      meat        
    ## 10 Hogs      meat        
    ## # ... with 210 more rows
Seems that the values were changed correctly

Lets aggregate the data in column

``` r
clean %>%
  group_by(industry_fct) %>%
  summarise(n = n()) %>%
  mutate(prop = round(n / sum(n) * 100, 2)) %>%
  arrange(-n)
```

    ## `summarise()` ungrouping output (override with `.groups` argument)

    ## # A tibble: 49 x 3
    ##    industry_fct       n  prop
    ##    <chr>          <int> <dbl>
    ##  1 dairy             61 27.7 
    ##  2 cereals           28 12.7 
    ##  3 beverages         24 10.9 
    ##  4 meat              20  9.09
    ##  5 oils              11  5   
    ##  6 paper              9  4.09
    ##  7 bread or flour     7  3.18
    ##  8 fruits             7  3.18
    ##  9 tobacco            6  2.73
    ## 10 sugar              5  2.27
    ## # ... with 39 more rows
…
Check the result

``` r
clean %>% 
  distinct(country, country_st)
```

    ## # A tibble: 41 x 2
    ##    country     country_st   
    ##    <chr>       <chr>        
    ##  1 Germany     Germany      
    ##  2 USA         United States
    ##  3 Hungary     Hungary      
    ##  4 Sweden      Sweden       
    ##  5 Netherlands Netherlands  
    ##  6 Canada      Canada       
    ##  7 Haiti       Haiti        
    ##  8 France      France       
    ##  9 Spain       Spain        
    ## 10 Australia   Australia    
    ## # ... with 31 more rows
…
manually change improper values

check results

``` r
clean %>% 
  select(industry, perish) %>% 
  filter(perish == 1)
```

    ## # A tibble: 35 x 2
    ##    industry       perish
    ##    <chr>           <dbl>
    ##  1 Beef                1
    ##  2 Beef                1
    ##  3 Pork                1
    ##  4 Pork                1
    ##  5 Meat                1
    ##  6 Meat Packing        1
    ##  7 Paultry & Eggs      1
    ##  8 Cond. Milk          1
    ##  9 Fluid Milk          1
    ## 10 Fish                1
    ## # ... with 25 more rows
…
lets check the results

``` r
support %>% 
  distinct(location, country)
```

    ## # A tibble: 27 x 2
    ##    location country    
    ##    <chr>    <chr>      
    ##  1 AUS      Australia  
    ##  2 CAN      Canada     
    ##  3 ISL      Iceland    
    ##  4 JPN      Japan      
    ##  5 KOR      South Korea
    ##  6 MEX      Mexico     
    ##  7 NZL      New Zealand
    ##  8 NOR      Norway     
    ##  9 CHE      Switzerland
    ## 10 TUR      Turkey     
    ## # ... with 17 more rows
…
country_year
```

    ## # A tibble: 3,447 x 3
    ##       id country  year
    ##    <int> <chr>   <dbl>
    ##  1     1 Germany  1995
    ##  2     1 Germany  1996
    ##  3     1 Germany  1997
    ##  4     1 Germany  1998
    ##  5     1 Germany  1999
    ##  6     1 Germany  2000
    ##  7     2 Germany  1995
    ##  8     2 Germany  1996
    ##  9     2 Germany  1997
    ## 10     2 Germany  1998
    ## # ... with 3,437 more rows
…
``` r
PP$country <- countrycode(sourcevar = PP$location,
                    origin = "genc3c",
                    destination = "country.name",
                    warn = TRUE,
                    nomatch = NULL)

PP %>% 
  distinct(location, country)
```

    ## # A tibble: 27 x 2
    ##    location country    
    ##    <chr>    <chr>      
    ##  1 AUS      Australia  
    ##  2 CAN      Canada     
    ##  3 ISL      Iceland    
    ##  4 JPN      Japan      
    ##  5 KOR      South Korea
    ##  6 MEX      Mexico     
    ##  7 NZL      New Zealand
    ##  8 NOR      Norway     
    ##  9 CHE      Switzerland
    ## 10 TUR      Turkey     
    ## # ... with 17 more rows
…
