…
``` r
analysis %>%
  summarise_all(funs(sum(is.na(.)))) %>%
  gather(column, n_na)
```

    ## # A tibble: 30 x 2
    ##    column              n_na
    ##    <chr>              <int>
    ##  1 index                  0
    ##  2 obs_n                  0
    ##  3 after_2005             0
    ##  4 perish                 0
    ##  5 mean_pse               0
    ##  6 mean_pp                0
    ##  7 sfarm_share          240
    ##  8 sfarm_share_by_cat   242
    ##  9 start_business       126
    ## 10 edb_index            182
    ## # ... with 20 more rows
…
